[gd_scene load_steps=5 format=2]

[ext_resource path="res://plugins/minigames/dungeon_parkour/Dungeon Arena/exported/BlockS01.escn" type="PackedScene" id=1]
[ext_resource path="res://plugins/minigames/dungeon_parkour/Dungeon Arena/ColorPaletteRED.png" type="Texture" id=2]



[sub_resource type="SpatialMaterial" id=3]
albedo_texture = ExtResource( 2 )

[sub_resource type="BoxShape" id=4]
extents = Vector3( 0.5, 0.5, 0.5 )

[node name="BlockS01" index="0" instance=ExtResource( 1 )]

[node name="BlockS01" parent="." index="0"]
transform = Transform( 1, 0, 0, 0, -4.37114e-08, -1, 0, 1, -4.37114e-08, 0, 0.5, 0 )
material/0 = SubResource( 3 )

[node name="StaticBody" type="StaticBody" parent="." index="1"]

[node name="CollisionShape" type="CollisionShape" parent="StaticBody" index="0"]
transform = Transform( 1, 0, 0, 0, 1, 0, 0, 0, 1, 0, 0.5, 0.075 )
shape = SubResource( 4 )
