[gd_scene load_steps=5 format=2]

[ext_resource path="res://scenes/board_logic/controller/rewardscreens/2v2.gd" type="Script" id=1]
[ext_resource path="res://scenes/board_logic/controller/rewardscreens/background.png" type="Texture" id=2]

[sub_resource type="PanoramaSky" id=1]
panorama = ExtResource( 2 )

[sub_resource type="Environment" id=2]
background_mode = 2
background_sky = SubResource( 1 )

[node name="Spatial" type="Spatial"]
script = ExtResource( 1 )

[node name="Timer" type="Timer" parent="."]
wait_time = 5.0
autostart = true

[node name="Camera" type="Camera" parent="."]
transform = Transform( -1.62921e-07, 0, -1, 0, 1, 0, 1, 0, -1.62921e-07, -3, 1, 0 )
environment = SubResource( 2 )

[node name="DirectionalLight" type="DirectionalLight" parent="."]
transform = Transform( -0.541675, 0.707107, -0.454519, 0.541675, 0.707107, 0.454519, 0.642788, 0, -0.766044, 0, 1.91365, 0 )

[node name="Player1" type="Spatial" parent="."]
transform = Transform( -4.37114e-08, 0, -1, 0, 1, 0, 1, 0, -4.37114e-08, 0, 0, -2 )

[node name="Player2" type="Spatial" parent="."]
transform = Transform( -4.37114e-08, 0, -1, 0, 1, 0, 1, 0, -4.37114e-08, 0, 0, -1 )

[node name="Player3" type="Spatial" parent="."]
transform = Transform( -4.37114e-08, 0, -1, 0, 1, 0, 1, 0, -4.37114e-08, 0, 0, 1 )

[node name="Player4" type="Spatial" parent="."]
transform = Transform( -4.37114e-08, 0, -1, 0, 1, 0, 1, 0, -4.37114e-08, 0, 0, 2 )

[connection signal="timeout" from="Timer" to="." method="_on_Timer_timeout"]
