[gd_scene load_steps=5 format=2]

[ext_resource path="res://plugins/minigames/forest_run/Forest Arena/exported/Ground02.escn" type="PackedScene" id=1]
[ext_resource path="res://plugins/minigames/forest_run/Forest Arena/ColorPaletteNormal.png" type="Texture" id=2]


[sub_resource type="SpatialMaterial" id=1]
albedo_texture = ExtResource( 2 )

[sub_resource type="BoxShape" id=2]
extents = Vector3( 1, 1.1, 1 )

[node name="Ground02" index="0" instance=ExtResource( 1 )]

[node name="ForestGround02" parent="." index="0"]
transform = Transform( 1, 0, 0, 0, 1, 0, 0, 0, 1, 0, -1, 0 )
material/0 = SubResource( 1 )

[node name="StaticBody" type="StaticBody" parent="." index="1"]

[node name="CollisionShape" type="CollisionShape" parent="StaticBody" index="0"]
transform = Transform( 1, 0, 0, 0, 1, 0, 0, 0, 1, 0, -0.95, 0 )
shape = SubResource( 2 )
